…
``` r
city_props = 
  city_summary %>% 
  mutate(
    test = map2(.x = city_unsolved, .y = city_total, ~prop.test(x = .x, n = .y)),
    test = map(test,broom::tidy))%>%
  unnest() %>%
  select(city_state, estimate, conf.low, conf.high)%>%
  arrange(desc(estimate))

city_props
```

    ## # A tibble: 51 × 4
    ##    city_state         estimate conf.low conf.high
    ##    <chr>                 <dbl>    <dbl>     <dbl>
    ##  1 Chicago, IL           0.736    0.724     0.747
    ##  2 New Orleans, LA       0.649    0.623     0.673
    ##  3 Baltimore, MD         0.646    0.628     0.663
    ##  4 San Bernardino, CA    0.618    0.558     0.675
    ##  5 Buffalo, NY           0.612    0.569     0.654
    ##  6 Miami, FL             0.605    0.569     0.640
    ##  7 Stockton, CA          0.599    0.552     0.645
    ##  8 Detroit, MI           0.588    0.569     0.608
    ##  9 Phoenix, AZ           0.551    0.518     0.584
    ## 10 Denver, CO            0.542    0.485     0.598
    ## # ℹ 41 more rows
…
longit_tidy
```

    ## # A tibble: 160 × 4
    ##    group subject  week   obs
    ##    <chr>   <int> <dbl> <dbl>
    ##  1 con         1     1  0.2 
    ##  2 con         1     2 -1.31
    ##  3 con         1     3  0.66
    ##  4 con         1     4  1.96
    ##  5 con         1     5  0.23
    ##  6 con         1     6  1.09
    ##  7 con         1     7  0.05
    ##  8 con         1     8  1.94
    ##  9 con         2     1  1.13
    ## 10 con         2     2 -0.88
    ## # ℹ 150 more rows
…
